<svg xmlns="http://www.w3.org/2000/svg" width="56.903" height="71.106" viewBox="0 0 56.903 71.106">
  <path id="shield-check" d="M59.587,7.864A3.556,3.556,0,0,0,56.6,7.153,28.451,28.451,0,0,1,34.479,2.636a3.556,3.556,0,0,0-4.054,0A28.451,28.451,0,0,1,8.3,7.153,3.551,3.551,0,0,0,4,10.638v26.5A32.008,32.008,0,0,0,17.408,63.2l12.981,9.247a3.556,3.556,0,0,0,4.125,0L47.5,63.2A32.008,32.008,0,0,0,60.9,37.133v-26.5A3.556,3.556,0,0,0,59.587,7.864Zm-5.8,29.269A24.9,24.9,0,0,1,43.37,57.4L32.451,65.193,21.533,57.4a24.9,24.9,0,0,1-10.42-20.272V14.728A35.564,35.564,0,0,0,32.451,9.784,35.564,35.564,0,0,0,53.79,14.728ZM37.928,28.989l-9.567,9.6L25.2,35.39a3.571,3.571,0,0,0-5.05,5.05l5.69,5.69a3.556,3.556,0,0,0,5.05,0L43.121,34a3.571,3.571,0,1,0-5.05-5.05Z" transform="translate(-4 -2.002)" fill="#fe6f7e"/>
</svg>
