<svg xmlns="http://www.w3.org/2000/svg" width="93" height="89" viewBox="0 0 93 89">
  <g id="Group_19" data-name="Group 19" transform="translate(-6091 -5377)">
    <path id="Rectangle_11" data-name="Rectangle 11" d="M0,0H48.5A44.5,44.5,0,0,1,93,44.5v0A44.5,44.5,0,0,1,48.5,89H0a0,0,0,0,1,0,0V0A0,0,0,0,1,0,0Z" transform="translate(6091 5377)" fill="#fb4659"/>
    <path id="Icon_feather-chevron-left" data-name="Icon feather-chevron-left" d="M13.5,28.034l9.517-9.517L13.5,9" transform="translate(6119 5402.5)" fill="none" stroke="#fff" stroke-linecap="round" stroke-linejoin="round" stroke-width="3"/>
  </g>
</svg>
