<svg xmlns="http://www.w3.org/2000/svg" width="50" height="50" viewBox="0 0 50 50">
  <g id="Group_56" data-name="Group 56" transform="translate(-7050 585)">
    <circle id="Ellipse_5" data-name="Ellipse 5" cx="25" cy="25" r="25" transform="translate(7050 -585)" fill="#fb4659"/>
    <path id="Icon_feather-chevron-right" data-name="Icon feather-chevron-right" d="M13.5,25l8-8-8-8" transform="translate(7057.933 -577)" fill="none" stroke="#fff" stroke-linecap="round" stroke-linejoin="round" stroke-width="3"/>
  </g>
</svg>
