<svg xmlns="http://www.w3.org/2000/svg" width="25.862" height="21.004" viewBox="0 0 25.862 21.004">
  <path id="Icon_awesome-twitter" data-name="Icon awesome-twitter" d="M23.2,8.615c.016.23.016.459.016.689A14.977,14.977,0,0,1,8.139,24.385,14.978,14.978,0,0,1,0,22.006a10.966,10.966,0,0,0,1.28.066,10.615,10.615,0,0,0,6.58-2.264A5.31,5.31,0,0,1,2.9,16.131a6.684,6.684,0,0,0,1,.082,5.606,5.606,0,0,0,1.395-.18,5.3,5.3,0,0,1-4.25-5.2v-.066a5.338,5.338,0,0,0,2.4.673A5.308,5.308,0,0,1,1.805,4.349,15.066,15.066,0,0,0,12.734,9.9,5.983,5.983,0,0,1,12.6,8.681a5.305,5.305,0,0,1,9.173-3.627,10.435,10.435,0,0,0,3.364-1.28A5.286,5.286,0,0,1,22.809,6.7a10.626,10.626,0,0,0,3.052-.82A11.394,11.394,0,0,1,23.2,8.615Z" transform="translate(0 -3.381)" fill="#263238"/>
</svg>
